Useful Functions in the Tidyverse
…
str_detect

We can use str_detect from the ‘stringr’ package for more flexibility when filter. Let’s say I want to filter out rows for all flights heading to an international aiport. I can filter out for any airport with the string “Intl” in it:

library(nycflights13)
data("flights")
data("airports")

flights %>%
  left_join(.,airports, by = c("dest" = "faa")) %>%
  filter(str_detect(name, "Intl")) %>%
  dplyr::select(name)

## # A tibble: 287,875 x 1
##    name                           
##    <chr>                          
##  1 Miami Intl                     
##  2 Hartsfield Jackson Atlanta Intl
##  3 Chicago Ohare Intl             
##  4 Fort Lauderdale Hollywood Intl 
##  5 Washington Dulles Intl         
##  6 Orlando Intl                   
##  7 Chicago Ohare Intl             
##  8 Palm Beach Intl                
##  9 Tampa Intl                     
## 10 Los Angeles Intl               
## # … with 287,865 more rows
