Data Exploration Script
…
The seed allows us to get reproducible results and here’s how we set it:

set.seed(1234) 

Let’s grab a random subsample to make it easier to work with the sample_n function allows us to randomly sample rows from a dataset. Here we sample just 20,000 rows. Your computer will thank you later when you are plotting these data

ny_flights<-sample_n(flights, 20000)
ny_flights

## # A tibble: 20,000 x 19
##     year month   day dep_time sched_dep_time dep_delay arr_time sched_arr_time
##    <int> <int> <int>    <int>          <int>     <dbl>    <int>          <int>
##  1  2013     6    17     1033           1040        -7     1246           1309
##  2  2013    12    26     1343           1329        14     1658           1624
##  3  2013     8    26     1258           1218        40     1510           1516
##  4  2013     8    17     1558           1600        -2     1835           1849
##  5  2013     2    17       NA           1500        NA       NA           1653
##  6  2013     6    30      905            900         5     1200           1206
##  7  2013     9    15     1017           1025        -8     1245           1325
##  8  2013     5     7     1623           1627        -4     1819           1818
##  9  2013     3    14      703            645        18      854            846
## 10  2013     9     4      739            740        -1     1030           1055
## # … with 19,990 more rows, and 11 more variables: arr_delay <dbl>,
## #   carrier <chr>, flight <int>, tailnum <chr>, origin <chr>, dest <chr>,
## #   air_time <dbl>, distance <dbl>, hour <dbl>, minute <dbl>, time_hour <dttm>
…
We see that EWR (Newark Liberty Airport has the most outgoing flights). But more importantly it tells us that the flights are more or less evenly distributed between the three airports. No single airport is taking up most of the data.

Let’s see which carriers from which airports had the most amount of flight delays? Note: I filter out negative departure delay times because those represent planes that departed ahead of schedule. Note: I use the na.rm =T argument here because there are NAs in the datset for dep_delay

delayed_planes<-ny_flights %>% 
  filter(dep_delay > 0) %>%
  group_by(origin, carrier) %>%
  summarise(total_delay = sum(dep_delay, na.rm = T)) %>%
  arrange(desc(total_delay))

## `summarise()` has grouped output by 'origin'. You can override using the `.groups` argument.

delayed_planes

## # A tibble: 33 x 3
## # Groups:   origin [3]
##    origin carrier total_delay
##    <chr>  <chr>         <dbl>
##  1 EWR    EV            60336
##  2 EWR    UA            41592
##  3 JFK    B6            36854
##  4 JFK    9E            18152
##  5 LGA    DL            17338
##  6 JFK    DL            12947
##  7 LGA    MQ            11738
##  8 LGA    EV            10508
##  9 JFK    AA            10472
## 10 LGA    AA             8977
## # … with 23 more rows
…
ny_flights %>%
  filter(carrier %in% top_airlines$carrier) %>%
  group_by(carrier,dest) %>%
  summarise(total= n()) %>%
  arrange(desc(total))

## `summarise()` has grouped output by 'carrier'. You can override using the `.groups` argument.

## # A tibble: 186 x 3
## # Groups:   carrier [5]
##    carrier dest  total
##    <chr>   <chr> <int>
##  1 DL      ATL     629
##  2 UA      IAH     446
##  3 AA      DFW     422
##  4 AA      MIA     416
##  5 B6      FLL     415
##  6 UA      ORD     399
##  7 B6      MCO     385
##  8 UA      SFO     375
##  9 UA      LAX     329
## 10 AA      ORD     328
## # … with 176 more rows
…
